…
``` r
final_data<-
final_data %>%
  mutate(
    Days =day(TransDate),
    Weekday_names = weekdays(TransDate),
    Months =month(TransDate),
    month_end = case_when(
      (Months==12 &Days >= 1) ~ 1,
      TRUE ~ 0)  )
final_data
```

    ## # A tsibble: 1,309 x 6 [1D]
    ##    TransDate  withdrawals  Days Weekday_names Months month_end
    ##    <date>           <dbl> <int> <chr>          <dbl>     <dbl>
    ##  1 2016-06-01      389620     1 Wednesday          6         0
    ##  2 2016-06-02      549360     2 Thursday           6         0
    ##  3 2016-06-03      599170     3 Friday             6         0
    ##  4 2016-06-04      406240     4 Saturday           6         0
    ##  5 2016-06-05      247840     5 Sunday             6         0
    ##  6 2016-06-06      221210     6 Monday             6         0
    ##  7 2016-06-07      380990     7 Tuesday            6         0
    ##  8 2016-06-08      411650     8 Wednesday          6         0
    ##  9 2016-06-09      592110     9 Thursday           6         0
    ## 10 2016-06-10      799020    10 Friday             6         0
    ## # … with 1,299 more rows
…
